Atividade4
…
Assim, foram observados que dois datasets se referem  mesma instiuio.

murici_gbif1 %>% 
  filter(datasetName %in% c("RB - Rio de Janeiro Botanical Garden Herbarium Collection"))

## # A tibble: 34 x 16
##    scientificName   acceptedScientif~ decimalLatitude decimalLongitude issues   
##    <chr>            <chr>                       <dbl>            <dbl> <chr>    
##  1 Byrsonima seric~ Byrsonima serice~          -22.9             -42.6 cdround,~
##  2 Byrsonima seric~ Byrsonima serice~          -23.0             -43.4 cdround,~
##  3 Byrsonima seric~ Byrsonima serice~          -23.0             -43.5 cdround,~
##  4 Byrsonima seric~ Byrsonima serice~          -22.9             -42.5 cdround,~
##  5 Byrsonima seric~ Byrsonima serice~          -22.9             -42.5 cdround,~
##  6 Byrsonima seric~ Byrsonima serice~          -22.9             -42.4 cdround,~
##  7 Byrsonima seric~ Byrsonima serice~          -22.9             -42.5 cdround,~
##  8 Byrsonima seric~ Byrsonima serice~           -4.54            -43.8 gass84,i~
##  9 Byrsonima seric~ Byrsonima serice~           -4.82            -43.0 gass84,i~
## 10 Byrsonima seric~ Byrsonima serice~           -7.02            -44.1 cdround,~
## # ... with 24 more rows, and 11 more variables: basisOfRecord <chr>,
## #   occurrenceStatus <chr>, rightsHolder <chr>, datasetName <chr>,
## #   recordedBy <chr>, continent <chr>, locality <chr>, habitat <chr>,
## #   institutionCode <chr>, elevation <dbl>, stateProvince <chr>
…
